<?xml version="1.0" encoding="UTF-8" standalone="no"?>
<svg
   xmlns:dc="http://purl.org/dc/elements/1.1/"
   xmlns:cc="http://creativecommons.org/ns#"
   xmlns:rdf="http://www.w3.org/1999/02/22-rdf-syntax-ns#"
   xmlns:svg="http://www.w3.org/2000/svg"
   xmlns="http://www.w3.org/2000/svg"
   xmlns:sodipodi="http://sodipodi.sourceforge.net/DTD/sodipodi-0.dtd"
   xmlns:inkscape="http://www.inkscape.org/namespaces/inkscape"
   inkscape:version="1.0beta0 (1b5d333, 2019-09-08)"
   sodipodi:docname="align-horizontal-right-symbolic.svg"
   viewBox="0 0 16 16"
   height="16"
   width="16"
   id="svg1"
   version="1.1">
<style id="s0">
   .base    { fill: #000000; }
   .success { fill: #009909; }
   .warning { fill: #FF1990; }
   .error   { fill: #00AAFF; }
   .dark    {  }
  </style>
  <style id="s2"> 
     @import '../../highlights.css'; 
  </style>
     
<metadata
     id="metadata502">
    <rdf:RDF>
      <cc:Work
         rdf:about="">
        <dc:format>image/svg+xml</dc:format>
        <dc:type
           rdf:resource="http://purl.org/dc/dcmitype/StillImage" />
      </cc:Work>
    </rdf:RDF>
  </metadata>
  <defs
     id="defs500">
    <inkscape:path-effect
       effect="join_type"
       id="path-effect3466"
       is_visible="true"
       linecap_type="butt"
       line_width="2"
       linejoin_type="extrp_arc"
       miter_limit="100"
       attempt_force_join="true" />
  </defs>
  <sodipodi:namedview
     inkscape:snap-global="false"
     inkscape:current-layer="svg1"
     inkscape:window-maximized="1"
     inkscape:window-y="-8"
     inkscape:window-x="54"
     inkscape:window-height="1177"
     inkscape:window-width="1858"
     inkscape:cy="10.729792"
     inkscape:cx="19.016862"
     inkscape:zoom="22.4"
     showgrid="true"
     id="namedview"
     guidetolerance="10"
     gridtolerance="10"
     objecttolerance="10">
    <inkscape:grid
       id="grid"
       type="xygrid" />
  </sodipodi:namedview>
  <g
     id="align-horizontal-right"
     inkscape:label="00273"
     transform="matrix(0.666667,0,0,0.666666,-772,-396.90779)">
    <g
       transform="matrix(-1,0,0,1,2264,0)"
       id="g22329"
       inkscape:label="#al_left_in">
      <g
         id="g22331">
        <path
           transform="scale(-1,1)"
           style="opacity:0;fill:none"
           d="m -1106,595.36218 h 24 v 24 h -24 z"
           id="rect22333"
           inkscape:connector-curvature="0" />
        <path
           class="success"
           style="opacity:1;fill-opacity:1"
           d="m 1086,595.36218 h -1.5 v 24 h 1.5 z"
           id="rect22335"
           inkscape:connector-curvature="0" />
        <path
           transform="scale(-1,1)"
           style="opacity:1"
           d="m -1103,595.36218 h 16 v 5 h -16 z"
           id="rect22337"
           inkscape:connector-curvature="0" />
        <path
           transform="scale(-1,1)"
           style="opacity:1"
           d="m -1097,602.36218 h 10 v 3.00001 h -10 z"
           id="rect22339"
           inkscape:connector-curvature="0" />
        <path
           transform="scale(-1,1)"
           style="opacity:1"
           d="m -1101,607.36218 h 14 v 4 h -14 z"
           id="rect22341"
           inkscape:connector-curvature="0" />
        <path
           inkscape:connector-curvature="0"
           id="path22343"
           style="opacity:1;fill-opacity:0.501961;"
           d="m 10.667969,12 v 1.333984 H 4.6679688 v 1.332032 H 10.667969 V 16 l 2,-2 z"
           transform="matrix(-1.4999993,0,0,1.5000015,1106.0006,595.36228)" />
      </g>
    </g>
  </g>
</svg>
