<?xml version="1.0" encoding="UTF-8" standalone="no"?>
<svg
   xmlns:dc="http://purl.org/dc/elements/1.1/"
   xmlns:cc="http://creativecommons.org/ns#"
   xmlns:rdf="http://www.w3.org/1999/02/22-rdf-syntax-ns#"
   xmlns:svg="http://www.w3.org/2000/svg"
   xmlns="http://www.w3.org/2000/svg"
   xmlns:sodipodi="http://sodipodi.sourceforge.net/DTD/sodipodi-0.dtd"
   xmlns:inkscape="http://www.inkscape.org/namespaces/inkscape"
   inkscape:version="1.0beta0 (1d85f8e, 2019-09-11)"
   sodipodi:docname="draw-rectangle-symbolic.svg"
   viewBox="0 0 16 16"
   height="16"
   width="16"
   id="svg1"
   version="1.1">
<style id="s0">
   .base    { fill: #000000; }
   .success { fill: #009909; }
   .warning { fill: #FF1990; }
   .error   { fill: #00AAFF; }
   .dark    {  }
  </style>
  <style id="s2"> 
     @import '../../highlights.css'; 
  </style>
  
  <metadata
     id="metadata1678">
    <rdf:RDF>
      <cc:Work
         rdf:about="">
        <dc:format>image/svg+xml</dc:format>
        <dc:type
           rdf:resource="http://purl.org/dc/dcmitype/StillImage" />
      </cc:Work>
    </rdf:RDF>
  </metadata>
  <defs
     id="defs1676">
    <inkscape:path-effect
       hide_knots="false"
       only_selected="true"
       apply_with_radius="true"
       apply_no_radius="true"
       use_knot_distance="false"
       flexible="false"
       chamfer_steps="1"
       radius="0"
       mode="F"
       method="auto"
       unit="px"
       satellites_param="F,0,0,1,0,2,0,1 @ F,0,0,1,0,2,0,1 @ F,0,0,1,0,2,0,1 @ F,0,0,1,0,2,0,1 | F,0,1,1,0,0,0,1 @ F,0,1,1,0,0,0,1 @ F,0,1,1,0,0,0,1 @ F,0,1,1,0,0,0,1"
       is_visible="true"
       id="path-effect957"
       effect="fillet_chamfer" />
    <inkscape:path-effect
       attempt_force_join="true"
       miter_limit="100"
       linejoin_type="round"
       line_width="2.5"
       linecap_type="round"
       is_visible="true"
       id="path-effect4438"
       effect="join_type" />
  </defs>
  <sodipodi:namedview
     inkscape:snap-global="true"
     inkscape:current-layer="g0"
     inkscape:window-maximized="1"
     inkscape:window-y="-8"
     inkscape:window-x="54"
     inkscape:window-height="1177"
     inkscape:window-width="1858"
     inkscape:cy="9.2945139"
     inkscape:cx="5.966405"
     inkscape:zoom="44.8"
     showgrid="true"
     id="namedview"
     guidetolerance="10"
     gridtolerance="10"
     objecttolerance="10">
    <inkscape:grid
       id="grid"
       type="xygrid" />
  </sodipodi:namedview>
  <g
     inkscape:label="draw-rectangle"
     id="g0">
    <path
       id="background"
       d="M 0,0 H 16 V 16 H 0 Z"
       style="opacity:0"
       inkscape:connector-curvature="0" />
    <path
       class="warning"
       d="M 1.7193115,1.6799758 H 14.280941 V 14.241606 H 1.7268697 Z"
       inkscape:label="fill"
       style="opacity:0.6"
       id="rect938"
       inkscape:connector-curvature="0" />
    <path
       inkscape:original-d="M 1,1 V 15 H 15 V 1 Z M 3,3 H 13 V 13 H 3 Z"
       inkscape:path-effect="#path-effect957"
       inkscape:connector-curvature="0"
       d="m 1,3 v 10 a 2,2 45 0 0 2,2 h 10 a 2,2 135 0 0 2,-2 V 3 A 2,2 45 0 0 13,1 H 3 A 2,2 135 0 0 1,3 Z M 3,3 H 13 V 13 H 3 Z"
       style="opacity:1;"
       id="path954" />
  </g>
</svg>
