<?xml version="1.0" encoding="UTF-8" standalone="no"?>
<svg
   xmlns:dc="http://purl.org/dc/elements/1.1/"
   xmlns:cc="http://creativecommons.org/ns#"
   xmlns:rdf="http://www.w3.org/1999/02/22-rdf-syntax-ns#"
   xmlns:svg="http://www.w3.org/2000/svg"
   xmlns="http://www.w3.org/2000/svg"
   xmlns:sodipodi="http://sodipodi.sourceforge.net/DTD/sodipodi-0.dtd"
   xmlns:inkscape="http://www.inkscape.org/namespaces/inkscape"
   inkscape:version="1.1-dev (1fceb22, 2019-12-30)"
   sodipodi:docname="none-symbolic.svg"
   version="1.1"
   height="16"
   width="16"
   id="svg1">
  <style
     id="s0">
.base { fill:#000000; }
.success { fill:#009909; }
.warning { fill:#FF1990; }
.error { fill:#00AAFF; }
.dark { }
</style>
  <style
     id="s2">
@import '../../highlights.css';
</style>
  <metadata
     id="metadata9">
    <rdf:RDF>
      <cc:Work
         rdf:about="">
        <dc:format>image/svg+xml</dc:format>
        <dc:type
           rdf:resource="http://purl.org/dc/dcmitype/StillImage" />
      </cc:Work>
    </rdf:RDF>
  </metadata>
  <sodipodi:namedview
     inkscape:current-layer="svg1"
     inkscape:window-maximized="1"
     inkscape:window-y="-8"
     inkscape:window-x="54"
     inkscape:cy="8"
     inkscape:cx="8.135593"
     inkscape:zoom="14.75"
     showgrid="false"
     id="namedview7"
     inkscape:window-height="1177"
     inkscape:window-width="1858"
     inkscape:pageshadow="2"
     inkscape:pageopacity="0"
     guidetolerance="10"
     gridtolerance="10"
     objecttolerance="10"
     borderopacity="1"
     bordercolor="#666666"
     pagecolor="#ffffff" />
  <defs
     id="defs3" />
  <g
     id="none">
    <rect
       y="0"
       x="0"
       width="16"
       style="color:#000000;fill:none;stroke-width:0"
       id="rect9056-0"
       height="16" />
    <path
       id="rect7924"
       d="M 2.457032,1.83008 1.830078,2.45703 7.373047,8 1.830078,13.54101 2.457032,14.16992 8,8.62695 13.542969,14.16992 14.169922,13.54101 8.626953,8 14.169922,2.45703 13.542969,1.83008 8,7.37305 Z"
       style="fill:#000000;fill-rule:evenodd;stroke:none;fill-opacity:1;opacity:0.8095238" />
  </g>
</svg>
