<?xml version="1.0" encoding="UTF-8" standalone="no"?>
<svg
   xmlns:dc="http://purl.org/dc/elements/1.1/"
   xmlns:cc="http://creativecommons.org/ns#"
   xmlns:rdf="http://www.w3.org/1999/02/22-rdf-syntax-ns#"
   xmlns:svg="http://www.w3.org/2000/svg"
   xmlns="http://www.w3.org/2000/svg"
   xmlns:sodipodi="http://sodipodi.sourceforge.net/DTD/sodipodi-0.dtd"
   xmlns:inkscape="http://www.inkscape.org/namespaces/inkscape"
   inkscape:version="1.0beta2 (7cf281c, 2019-12-21)"
   sodipodi:docname="object-tweak-paint-symbolic.svg"
   viewBox="0 0 16 16"
   height="16"
   width="16"
   id="svg1"
   version="1.1">
  <metadata
     id="metadata6628">
    <rdf:RDF>
      <cc:Work
         rdf:about="">
        <dc:format>image/svg+xml</dc:format>
        <dc:type
           rdf:resource="http://purl.org/dc/dcmitype/StillImage" />
      </cc:Work>
    </rdf:RDF>
  </metadata>
  <defs
     id="defs6626" />
  <style
     id="s0">.base { fill:#000000; }
.success { fill:#009909; }
.warning { fill:#FF1990; }
.error { fill:#00AAFF; }
.dark {  }
</style>
  <style
     id="s2">
@import '../../highlights.css';
</style>
  <sodipodi:namedview
     inkscape:current-layer="svg1"
     inkscape:window-maximized="1"
     inkscape:window-y="-6"
     inkscape:window-x="65"
     inkscape:window-height="890"
     inkscape:window-width="1296"
     inkscape:cy="8"
     inkscape:cx="8"
     inkscape:zoom="41.125"
     showgrid="true"
     id="namedview"
     guidetolerance="10"
     gridtolerance="10"
     objecttolerance="10">
    <inkscape:grid
       id="grid"
       type="xygrid" />
  </sodipodi:namedview>
  <g
     inkscape:label="00112"
     id="object-tweak-paint"
     transform="translate(-255,-647.36218)">
    <path
       style="opacity:0;fill:none"
       d="m 255,647.36218 h 16 v 16 h -16 z"
       id="rect4527"
       inkscape:connector-curvature="0" />
    <path
       class="error"
       transform="scale(-1,1)"
       style="opacity:0.35"
       d="m -265,649.36218 h 4 v 4 h -4 z"
       id="rect4544"
       inkscape:connector-curvature="0" />
    <path
       class="error"
       transform="scale(1,-1)"
       style="opacity:0.5"
       d="m 257.0061,-657.3175 h 3.99393 v 3.9553 h -3.99393 z"
       id="rect4549"
       inkscape:connector-curvature="0" />
    <path
       class="error"
       transform="scale(1,-1)"
       style="opacity:0.35"
       d="m 265,-657.36218 h 4 v 4 h -4 z"
       id="rect4553"
       inkscape:connector-curvature="0" />
    <path
       class="error"
       transform="scale(-1,1)"
       style="opacity:0.35"
       d="m -265,657.36218 h 4 v 4.00001 h -4 z"
       id="rect4557"
       inkscape:connector-curvature="0" />
    <path
       class="error"
       style="opacity:1"
       d="m 261,653.36218 h 4.00001 v 4.00006 H 261 Z"
       id="rect15731"
       inkscape:connector-curvature="0" />
  </g>
</svg>
