<?xml version="1.0" encoding="UTF-8" standalone="no"?>
<svg
   xmlns:dc="http://purl.org/dc/elements/1.1/"
   xmlns:cc="http://creativecommons.org/ns#"
   xmlns:rdf="http://www.w3.org/1999/02/22-rdf-syntax-ns#"
   xmlns:svg="http://www.w3.org/2000/svg"
   xmlns="http://www.w3.org/2000/svg"
   xmlns:sodipodi="http://sodipodi.sourceforge.net/DTD/sodipodi-0.dtd"
   xmlns:inkscape="http://www.inkscape.org/namespaces/inkscape"
   inkscape:version="1.1-dev (6039630, 2019-12-20)"
   sodipodi:docname="path-mode-spiro-symbolic.svg"
   viewBox="0 0 16 16"
   height="16"
   width="16"
   id="svg1"
   version="1.1">
  <metadata
     id="metadata6656">
    <rdf:RDF>
      <cc:Work
         rdf:about="">
        <dc:format>image/svg+xml</dc:format>
        <dc:type
           rdf:resource="http://purl.org/dc/dcmitype/StillImage" />
      </cc:Work>
    </rdf:RDF>
  </metadata>
  <defs
     id="defs6654" />
  <style
     id="s0">
.base { fill:#000000; }
.success { fill:#009909; }
.warning { fill:#FF1990; }
.error { fill:#00AAFF; }
.dark { }
</style>
  <style
     id="s2">
@import '../../highlights.css';
</style>
  <sodipodi:namedview
     inkscape:current-layer="svg1"
     inkscape:window-maximized="1"
     inkscape:window-y="-6"
     inkscape:window-x="65"
     inkscape:window-height="890"
     inkscape:window-width="1296"
     inkscape:cy="8"
     inkscape:cx="8"
     inkscape:zoom="43.25"
     showgrid="true"
     id="namedview"
     guidetolerance="10"
     gridtolerance="10"
     objecttolerance="10">
    <inkscape:grid
       id="grid"
       type="xygrid" />
  </sodipodi:namedview>
  <g
     id="path-mode-spiro"
     inkscape:label="00213"
     transform="matrix(0.998873,0,0,1,-917.95987,-557.3622)">
    <path
       transform="translate(0,512.3622)"
       style="opacity:0;fill:none"
       d="m 919,45 h 16 v 16 h -16 z"
       id="rect21233"
       inkscape:connector-curvature="0" />
    <path
       style="opacity:1;stroke-linecap:round"
       d="m 924.11523,558.39062 c -1.52062,0.0133 -2.94791,0.73578 -3.89453,1.89454 -0.94285,1.15415 -1.35151,2.65501 -1.1914,4.11132 0.13056,1.18806 0.63179,2.31543 1.42578,3.20899 0.79379,0.89347 1.85313,1.52139 3.01758,1.79101 a 1.0006416,1.0006416 0 1 0 0.45117,-1.94921 c -0.75136,-0.17398 -1.46045,-0.59535 -1.97266,-1.17188 -0.51221,-0.57644 -0.8474,-1.33111 -0.93164,-2.09766 -0.1021,-0.92868 0.17486,-1.92095 0.75,-2.625 0.57058,-0.69845 1.48812,-1.15321 2.36524,-1.16015 a 1.0006416,1.0006416 0 0 0 0.004,0 c 0.57967,-0.007 1.17991,0.17851 1.65235,0.51367 0.4692,0.33287 0.83659,0.83613 1.0039,1.37695 0.2072,0.66983 0.13388,1.58992 0.24414,2.69141 0.0709,0.70496 0.23788,1.4375 0.58594,2.13086 0.35059,0.69827 0.88094,1.3406 1.60742,1.77344 0.89563,0.53357 1.9693,0.67264 2.96875,0.39257 a 1.0006416,1.0006416 0 0 0 0.002,0 c 0.9984,-0.2799 1.83778,-0.95368 2.33399,-1.85937 0.44164,-0.80593 0.58182,-1.74243 0.39648,-2.64258 -0.18533,-0.90012 -0.68413,-1.70552 -1.4082,-2.27148 a 1.0006416,1.0006416 0 1 0 -1.23242,1.57617 c 0.33933,0.26524 0.59477,0.67578 0.68164,1.09766 0.0869,0.42184 0.0155,0.90162 -0.19141,1.27929 -0.23039,0.42051 -0.66349,0.76429 -1.12109,0.89258 -0.45655,0.12793 -1.00268,0.0568 -1.40625,-0.18359 -0.33732,-0.20097 -0.63874,-0.54284 -0.84375,-0.95118 h 0.002 c -0.20754,-0.41344 -0.33171,-0.90635 -0.38476,-1.43359 -0.0829,-0.82851 0.0437,-1.90081 -0.32227,-3.08398 -0.30329,-0.98038 -0.92822,-1.82944 -1.75781,-2.41797 -0.82533,-0.58551 -1.81867,-0.89471 -2.83008,-0.88282 z"
       id="path6229"
       inkscape:connector-curvature="0">
      <desc
         id="desc9904">
inkscape:path-effect=&quot;#path-effect36695&quot; striped for faster load
</desc>
    </path>
  </g>
</svg>
