<?xml version="1.0" encoding="UTF-8" standalone="no"?>
<svg
   xmlns:dc="http://purl.org/dc/elements/1.1/"
   xmlns:cc="http://creativecommons.org/ns#"
   xmlns:rdf="http://www.w3.org/1999/02/22-rdf-syntax-ns#"
   xmlns:svg="http://www.w3.org/2000/svg"
   xmlns="http://www.w3.org/2000/svg"
   xmlns:sodipodi="http://sodipodi.sourceforge.net/DTD/sodipodi-0.dtd"
   xmlns:inkscape="http://www.inkscape.org/namespaces/inkscape"
   inkscape:version="1.1-dev (1fceb22, 2019-12-30)"
   sodipodi:docname="stroke-cap-round-symbolic.svg"
   viewBox="0 0 16 16"
   height="16"
   width="16"
   id="svg1"
   version="1.1">
  <metadata
     id="metadata13582">
    <rdf:RDF>
      <cc:Work
         rdf:about="">
        <dc:format>image/svg+xml</dc:format>
        <dc:type
           rdf:resource="http://purl.org/dc/dcmitype/StillImage" />
      </cc:Work>
    </rdf:RDF>
  </metadata>
  <defs
     id="defs13580" />
  <style
     id="s0">
.base { fill:#000000; }
.success { fill:#009909; }
.warning { fill:#FF1990; }
.error { fill:#00AAFF; }
.dark { }
</style>
  <style
     id="s2">
@import '../../highlights.css';
</style>
  <sodipodi:namedview
     inkscape:current-layer="svg1"
     inkscape:window-maximized="1"
     inkscape:window-y="-8"
     inkscape:window-x="54"
     inkscape:window-height="1177"
     inkscape:window-width="1858"
     inkscape:cy="6.1461102"
     inkscape:cx="9.3746238"
     inkscape:zoom="60.1875"
     showgrid="true"
     id="namedview"
     guidetolerance="10"
     gridtolerance="10"
     objecttolerance="10">
    <inkscape:grid
       id="grid"
       type="xygrid" />
  </sodipodi:namedview>
  <g
     id="stroke-cap-round"
     inkscape:label="00318"
     transform="matrix(0.666667,0,0,0.666667,-824.66667,-664.90868)">
    <path
       style="opacity:0;fill:none"
       d="m 1237,997.36261 h 24 v 23.99999 h -24 z"
       id="rect48637"
       inkscape:connector-curvature="0" />
    <path
       style="opacity:1"
       d="m 1248,1005.363 h 2 v 2 h -2 z"
       id="rect24687"
       inkscape:connector-curvature="0" />
    <path
       style="opacity:1"
       d="m 1248,1008.363 h 2 v 2 h -2 z"
       id="rect24689"
       inkscape:connector-curvature="0" />
    <path
       style="opacity:1"
       d="m 1248,1011.363 h 2 v 2 h -2 z"
       id="rect24691"
       inkscape:connector-curvature="0" />
    <path
       style="opacity:1"
       d="m 1248,1014.363 h 2 v 2 h -2 z"
       id="rect24693"
       inkscape:connector-curvature="0" />
    <path
       style="opacity:1"
       d="m 1248,1017.363 h 2 v 2 h -2 z"
       id="rect24695"
       inkscape:connector-curvature="0" />
    <path
       sodipodi:nodetypes="ssccccccss"
       id="path24697"
       d="m 1249,997.73955 c -4.432,0 -8,2.62295 -8,7.09385 v 14.5296 h 5 v -15 h 6 v 15 h 5 v -14.5296 c 0,-4.4709 -3.568,-7.09385 -8,-7.09385 z"
       style="opacity:1"
       inkscape:connector-curvature="0" />
  </g>
</svg>
