<?xml version="1.0" encoding="UTF-8" standalone="no"?>
<svg
   xmlns:dc="http://purl.org/dc/elements/1.1/"
   xmlns:cc="http://creativecommons.org/ns#"
   xmlns:rdf="http://www.w3.org/1999/02/22-rdf-syntax-ns#"
   xmlns:svg="http://www.w3.org/2000/svg"
   xmlns="http://www.w3.org/2000/svg"
   xmlns:sodipodi="http://sodipodi.sourceforge.net/DTD/sodipodi-0.dtd"
   xmlns:inkscape="http://www.inkscape.org/namespaces/inkscape"
   inkscape:version="1.1-dev (6039630, 2019-12-20)"
   sodipodi:docname="transform-affect-gradient-symbolic.svg"
   viewBox="0 0 16 16"
   height="16"
   width="16"
   id="svg1"
   version="1.1">
  <metadata
     id="metadata2901">
    <rdf:RDF>
      <cc:Work
         rdf:about="">
        <dc:format>image/svg+xml</dc:format>
        <dc:type
           rdf:resource="http://purl.org/dc/dcmitype/StillImage" />
      </cc:Work>
    </rdf:RDF>
  </metadata>
  <defs
     id="defs2899" />
  <style
     id="s0">.base { fill:#000000; }
.success { fill:#009909; }
.warning { fill:#FF1990; }
.error { fill:#00AAFF; }
.dark {  }
</style>
  <style
     id="s2">
@import '../../highlights.css';
</style>
  <sodipodi:namedview
     inkscape:current-layer="transform-affect-gradient"
     inkscape:window-maximized="0"
     inkscape:window-y="0"
     inkscape:window-x="65"
     inkscape:window-height="877"
     inkscape:window-width="1296"
     inkscape:cy="13.784287"
     inkscape:cx="-2.119662"
     inkscape:zoom="14.539883"
     showgrid="true"
     id="namedview"
     guidetolerance="10"
     gridtolerance="10"
     objecttolerance="10">
    <inkscape:grid
       id="grid"
       type="xygrid" />
  </sodipodi:namedview>
  <g
     id="transform-affect-gradient"
     inkscape:label="00159"
     transform="matrix(1,0,0,0.999999,-408,-527.36152)">
    <path
       style="opacity:0;fill:none"
       d="m 408,527.36218 h 16 v 16 h -16 z"
       id="rect15054"
       inkscape:connector-curvature="0" />
    <path
       style="opacity:1"
       d="m 410,528.3699 v 1 h 0.5 10.5 v 6.4923 0.5 h 1 v -0.5 -6.9923 -0.5 h -0.5 -11 z"
       id="path4430"
       inkscape:connector-curvature="0" />
    <path
       style="opacity:1"
       d="m 410,535.3622 v 1 h 0.5 6.5 v 0.5 0.5 h 1 v -0.5 -1 -0.5 h -0.5 -7 z"
       id="path4432"
       inkscape:connector-curvature="0" />
    <path
       class="error"
       style="opacity:1;stroke-width:1.63299"
       d="m 410,530.36218 h 8 v 4.00001 h -8 z"
       id="rect5201"
       inkscape:connector-curvature="0" />
    <path
       style="opacity:1"
       d="m 418,530.36218 h 1.99995 v 4.00002 H 418 Z"
       id="rect5211"
       inkscape:connector-curvature="0" />
    <path
       style="opacity:1"
       d="m 413,539.3622 v 2.0201 h 2 v -2.0201 z"
       id="path18881"
       inkscape:connector-curvature="0" />
    <path
       style="opacity:1"
       d="m 417,541.3622 v -2 h 3 v -2 l 2.9883,3 -2.9883,3 v -2 z"
       id="path18883"
       inkscape:connector-curvature="0" />
    <path
       inkscape:connector-curvature="0"
       id="path18885"
       d="m 410,539.3823 v 2.0202 h 2 v -2.0202 z"
       style="opacity:1" />
    <path
       style="opacity:0.2;stroke-width:1.22476"
       d="m 418,530.36218 h -3 v 4.00002 h 3 z"
       id="path3502"
       inkscape:connector-curvature="0" />
    <path
       style="opacity:0.2;stroke-width:1.41423"
       d="m 418,530.36218 h -4 v 4.00002 h 4 z"
       id="path3504"
       inkscape:connector-curvature="0" />
    <path
       style="opacity:0.2;stroke-width:1.58116"
       d="m 418,530.36218 h -5 v 4.00002 h 5 z"
       id="path3506"
       inkscape:connector-curvature="0" />
    <path
       inkscape:connector-curvature="0"
       id="path3498"
       d="m 418,530.36218 h -6 v 4.00002 h 6 z"
       style="opacity:0.2;stroke-width:1.73207" />
    <path
       inkscape:connector-curvature="0"
       id="path3500"
       d="m 418,530.36218 h -2 v 4.00002 h 2 z"
       style="opacity:0.2;stroke-width:1.00001" />
    <path
       style="opacity:0.2;stroke-width:0.707114"
       d="m 418,530.36218 h -1 v 4.00002 h 1 z"
       id="path3494"
       inkscape:connector-curvature="0" />
  </g>
</svg>
